%!PS-Adobe-3.0 EPSF-3.0
%%Creator: MATLAB, The Mathworks, Inc.
%%Title: C:\My_Documents\TeXdoc\Figs\mtf_ctf.eps
%%CreationDate: 07/06/99  17:31:11
%%DocumentNeededFonts: Helvetica
%%DocumentProcessColors: Cyan Magenta Yellow Black
%%LanguageLevel: 2
%%Pages: 1
%%BoundingBox:    47   189   542   616
%%EndComments

%%BeginProlog

% MathWorks dictionary
/MathWorks 160 dict begin

% definition operators
/bdef {bind def} bind def
/ldef {load def} bind def
/xdef {exch def} bdef
/xstore {exch store} bdef

% operator abbreviations
/c  /clip ldef
/cc /concat ldef
/cp /closepath ldef
/gr /grestore ldef
/gs /gsave ldef
/mt /moveto ldef
/np /newpath ldef
/cm /currentmatrix ldef
/sm /setmatrix ldef
/rc {rectclip} bdef
/rf {rectfill} bdef
/rm /rmoveto ldef
/rl /rlineto ldef
/s /show ldef
/sc {setcmykcolor} bdef
/sr /setrgbcolor ldef
/sg /setgray ldef
/w /setlinewidth ldef
/j /setlinejoin ldef
/cap /setlinecap ldef

% page state control
/pgsv () def
/bpage {/pgsv save def} bdef
/epage {pgsv restore} bdef
/bplot /gsave ldef
/eplot {stroke grestore} bdef

% orientation switch
/portraitMode 	0 def
/landscapeMode 	1 def

% coordinate system mappings
/dpi2point 0 def

% font control
/FontSize 0 def
/FMS {
	/FontSize xstore		%save size off stack
	findfont
	[FontSize 0 0 FontSize neg 0 0]
	makefont
	setfont
	}bdef

/ISOLatin1Encoding where
{pop
/WindowsLatin1Encoding 256 array bdef
ISOLatin1Encoding WindowsLatin1Encoding copy pop
/.notdef/.notdef/quotesinglbase/florin/quotedblbase/ellipsis/dagger/daggerdbl
/circumflex/perthousand/Scaron/guilsinglleft/OE/.notdef/.notdef/.notdef
/.notdef/quoteleft/quoteright/quotedblleft/quotedblright/bullet/endash/emdash
/tilde/trademark/scaron/guilsinglright/oe/.notdef/.notdef/Ydieresis
WindowsLatin1Encoding 128 32 getinterval astore pop}
{/WindowsLatin1Encoding StandardEncoding bdef} ifelse

/reencode {
exch dup where
{pop load} {pop StandardEncoding} ifelse
exch
dup 3 1 roll
findfont dup length dict begin
  { 1 index /FID ne {def}{pop pop} ifelse } forall
  /Encoding exch def
  currentdict
end
definefont pop
} bdef

/isroman {
findfont /CharStrings get
/Agrave known
} bdef

/FMSR {
3 1 roll 1 index
dup isroman
{reencode} {pop pop} ifelse
exch FMS
} bdef

/csm {
	1 dpi2point div -1 dpi2point div scale
	neg translate
	landscapeMode eq {90 rotate} if
	} bdef

% line types: solid, dotted, dashed, dotdash
/SO { [] 0 setdash } bdef
/DO { [.5 dpi2point mul 4 dpi2point mul] 0 setdash } bdef
/DA { [6 dpi2point mul] 0 setdash } bdef
/DD { [.5 dpi2point mul 4 dpi2point mul 6 dpi2point mul 4 dpi2point mul] 0 setdash } bdef

% macros for lines and objects
/L {
	lineto
	stroke
	} bdef
/MP {
	3 1 roll moveto
	1 sub {rlineto} repeat
	} bdef
/AP {
	{rlineto} repeat
	} bdef
/PP {
	closepath eofill
	} bdef
/DP {
	closepath stroke
	} bdef
/MR {
	4 -2 roll moveto
	dup  0 exch rlineto
	exch 0 rlineto
	neg  0 exch rlineto
	closepath
	} bdef
/FR {
	MR stroke
	} bdef
/PR {
	MR fill
	} bdef
/L1i {
	{ currentfile picstr readhexstring pop } image
	} bdef

/tMatrix matrix def
/MakeOval {
	newpath
	tMatrix currentmatrix pop
	translate scale
	0 0 1 0 360 arc
	tMatrix setmatrix
	} bdef
/FO {
	MakeOval
	stroke
	} bdef
/PO {
	MakeOval
	fill
	} bdef

/PD {
	currentlinecap 1 setlinecap 3 1 roll 2 copy moveto lineto stroke setlinecap
	} bdef

/FA {
	newpath
	tMatrix currentmatrix pop
	translate scale
	0 0 1 5 -2 roll arc
	tMatrix setmatrix
	stroke
	} bdef
/PA {
	newpath
	tMatrix currentmatrix pop
	translate 0 0 moveto scale
	0 0 1 5 -2 roll arc
	closepath
	tMatrix setmatrix
	fill
	} bdef

/FAn {
	newpath
	tMatrix currentmatrix pop
	translate scale
	0 0 1 5 -2 roll arcn
	tMatrix setmatrix
	stroke
	} bdef
/PAn {
	newpath
	tMatrix currentmatrix pop
	translate 0 0 moveto scale
	0 0 1 5 -2 roll arcn
	closepath
	tMatrix setmatrix
	fill
	} bdef

/vradius 0 def
/hradius 0 def
/lry 0 def
/lrx 0 def
/uly 0 def
/ulx 0 def
/rad 0 def

/MRR {
	/vradius xdef
	/hradius xdef
	/lry xdef
	/lrx xdef
	/uly xdef
	/ulx xdef
	newpath
	tMatrix currentmatrix pop
	ulx hradius add uly vradius add translate
	hradius vradius scale
	0 0 1 180 270 arc 
	tMatrix setmatrix
	lrx hradius sub uly vradius add translate
	hradius vradius scale
	0 0 1 270 360 arc
	tMatrix setmatrix
	lrx hradius sub lry vradius sub translate
	hradius vradius scale
	0 0 1 0 90 arc
	tMatrix setmatrix
	ulx hradius add lry vradius sub translate
	hradius vradius scale
	0 0 1 90 180 arc
	tMatrix setmatrix
	closepath
	} bdef
/FRR {
	MRR stroke } bdef
/PRR {
	MRR fill } bdef

/MlrRR {
	/lry xdef
	/lrx xdef
	/uly xdef
	/ulx xdef
	/rad lry uly sub 2 div def
	newpath
	tMatrix currentmatrix pop
	ulx rad add uly rad add translate
	rad rad scale
	0 0 1 90 270 arc
	tMatrix setmatrix
	lrx rad sub lry rad sub translate
	rad rad scale
	0 0 1 270 90 arc
	tMatrix setmatrix
	closepath
	} bdef
/FlrRR {
	MlrRR stroke } bdef
/PlrRR {
	MlrRR fill } bdef

/MtbRR {
	/lry xdef
	/lrx xdef
	/uly xdef
	/ulx xdef
	/rad lrx ulx sub 2 div def
	newpath
	tMatrix currentmatrix pop
	ulx rad add uly rad add translate
	rad rad scale
	0 0 1 180 360 arc
	tMatrix setmatrix
	lrx rad sub lry rad sub translate
	rad rad scale
	0 0 1 0 180 arc
	tMatrix setmatrix
	closepath
	} bdef
/FtbRR {
	MtbRR stroke } bdef
/PtbRR {
	MtbRR fill } bdef

currentdict end def
%%EndProlog

%%BeginSetup
MathWorks begin

0 cap

end
%%EndSetup

%%Page: 1 1
%%BeginPageSetup
%%PageBoundingBox:    47   189   542   616
MathWorks begin
bpage
%%EndPageSetup

%%BeginObject: obj1
bplot

/dpi2point 12 def
portraitMode 0204 7344 csm

  370   -48  5934  5116 rc
85 dict begin %Colortable dictionary
/c0 { 0 0 0 sr} bdef
/c1 { 1 1 1 sr} bdef
/c2 { 1 0 0 sr} bdef
/c3 { 0 1 0 sr} bdef
/c4 { 0 0 1 sr} bdef
/c5 { 1 1 0 sr} bdef
/c6 { 1 0 1 sr} bdef
/c7 { 0 1 1 sr} bdef
c0
1 j
1 sg
   0    0 6913 5185 rf
6 w
0 4224 5355 0 0 -4224 899 4613 4 MP
PP
-5355 0 0 4224 5355 0 0 -4224 899 4613 5 MP stroke
4 w
DO
SO
6 w
0 sg
 899  389 mt 6254  389 L
 899 4613 mt 6254 4613 L
6254 4613 mt 6254  389 L
 899 4613 mt  899  389 L
 899 4613 mt 6254 4613 L
 899 4613 mt  899  389 L
 899 4613 mt  899 4559 L
 899  389 mt  899  443 L
%%IncludeResource: font Helvetica
/Helvetica /WindowsLatin1Encoding 168 FMSR

 853 4804 mt 
(0) s
1756 4613 mt 1756 4559 L
1756  389 mt 1756  443 L
1640 4804 mt 
(0.2) s
2613 4613 mt 2613 4559 L
2613  389 mt 2613  443 L
2497 4804 mt 
(0.4) s
3469 4613 mt 3469 4559 L
3469  389 mt 3469  443 L
3353 4804 mt 
(0.6) s
4326 4613 mt 4326 4559 L
4326  389 mt 4326  443 L
4210 4804 mt 
(0.8) s
5183 4613 mt 5183 4559 L
5183  389 mt 5183  443 L
5137 4804 mt 
(1) s
6040 4613 mt 6040 4559 L
6040  389 mt 6040  443 L
5924 4804 mt 
(1.2) s
 899 4613 mt  953 4613 L
6254 4613 mt 6200 4613 L
 771 4675 mt 
(0) s
 899 4191 mt  953 4191 L
6254 4191 mt 6200 4191 L
 631 4253 mt 
(0.1) s
 899 3768 mt  953 3768 L
6254 3768 mt 6200 3768 L
 631 3830 mt 
(0.2) s
 899 3346 mt  953 3346 L
6254 3346 mt 6200 3346 L
 631 3408 mt 
(0.3) s
 899 2923 mt  953 2923 L
6254 2923 mt 6200 2923 L
 631 2985 mt 
(0.4) s
 899 2501 mt  953 2501 L
6254 2501 mt 6200 2501 L
 631 2563 mt 
(0.5) s
 899 2079 mt  953 2079 L
6254 2079 mt 6200 2079 L
 631 2141 mt 
(0.6) s
 899 1656 mt  953 1656 L
6254 1656 mt 6200 1656 L
 631 1718 mt 
(0.7) s
 899 1234 mt  953 1234 L
6254 1234 mt 6200 1234 L
 631 1296 mt 
(0.8) s
 899  811 mt  953  811 L
6254  811 mt 6200  811 L
 631  873 mt 
(0.9) s
 899  389 mt  953  389 L
6254  389 mt 6200  389 L
 771  451 mt 
(1) s
 899  389 mt 6254  389 L
 899 4613 mt 6254 4613 L
6254 4613 mt 6254  389 L
 899 4613 mt  899  389 L
gs 899 389 5356 4225 rc
43 5 43 9 43 12 42 14 43 16 43 18 43 19 43 20 
43 22 42 23 43 24 43 25 43 26 43 27 43 28 42 29 
43 29 43 31 43 31 43 32 43 32 42 34 43 34 43 34 
43 35 43 36 43 37 43 37 42 37 43 39 43 38 43 39 
43 40 43 40 42 41 43 41 43 42 43 42 43 42 43 43 
42 43 43 44 43 44 43 44 43 45 43 45 42 45 43 46 
43 46 43 47 43 46 43 47 43 48 42 47 43 48 43 48 
43 49 43 48 43 49 42 50 43 49 43 50 43 49 43 51 
43 50 42 50 43 51 43 51 43 51 43 51 43 51 42 52 
43 52 43 52 43 52 43 52 43 52 43 52 42 53 43 53 
43 52 43 53 43 53 43 53 42 53 43 54 43 53 43 53 
43 54 43 53 42 54 43 53 43 54 43 54 43 53 43 54 
42 54 43 53 43 54 43 54 899 389 101 MP stroke
DA
43 6 43 12 43 15 42 17 43 20 43 22 43 23 43 26 
43 27 42 28 43 30 43 31 43 33 43 33 43 35 42 36 
43 36 43 38 43 39 43 39 43 41 42 41 43 43 43 43 
43 44 43 44 43 45 43 46 42 47 43 48 43 48 43 48 
43 50 43 50 42 50 43 51 43 52 43 52 43 53 43 53 
42 54 43 54 43 55 43 55 43 55 43 56 42 57 43 57 
43 57 43 58 43 58 43 58 43 59 42 59 43 60 43 60 
43 60 43 60 43 61 42 61 43 62 43 61 43 62 43 63 
43 62 42 63 43 61 43 48 43 42 43 37 43 32 42 30 
43 26 43 24 43 22 43 19 43 18 43 16 42 14 43 13 
43 25 43 35 43 42 43 45 42 49 43 50 43 33 43 24 
43 19 43 36 42 45 43 29 43 32 43 34 43 35 43 32 
42 46 43 58 43 65 43 66 899 389 101 MP stroke
gr

DA
%%IncludeResource: font Helvetica
/Helvetica /WindowsLatin1Encoding 288 FMSR

2739  230 mt 
(MTF vs. CTF) s
%%IncludeResource: font Helvetica
/Helvetica /WindowsLatin1Encoding 216 FMSR

2188 5018 mt 
(Normalized spatial frequency) s
 576 3782 mt  -90 rotate
(Normalized image contrast) s
90 rotate
SO

end

eplot
%%EndObject

epage
end

showpage

%%Trailer
%%EOF
